[gd_scene load_steps=29 format=2]

[ext_resource path="res://tileset.tres" type="TileSet" id=1]
[ext_resource path="res://tileset2.png" type="Texture" id=2]
[ext_resource path="res://score.gd" type="Script" id=3]
[ext_resource path="res://montserrat.otf" type="DynamicFontData" id=4]
[ext_resource path="res://Turbine_UI.gd" type="Script" id=5]
[ext_resource path="res://scifi_tileset.png" type="Texture" id=6]
[ext_resource path="res://GUI-Kit-Pack-Free_23.png" type="Texture" id=7]
[ext_resource path="res://world.gd" type="Script" id=8]
[ext_resource path="res://GUI-Kit-Pack-Free_35.png" type="Texture" id=9]
[ext_resource path="res://GUI-Kit-Pack-Free_11.png" type="Texture" id=10]
[ext_resource path="res://Core_UI.gd" type="Script" id=11]
[ext_resource path="res://Fuel_UI.gd" type="Script" id=12]
[ext_resource path="res://Arrow01.png" type="Texture" id=13]
[ext_resource path="res://GUI-Kit-Pack-Free_32.png" type="Texture" id=14]
[ext_resource path="res://steam-turbine-control-blue.png" type="Texture" id=15]
[ext_resource path="res://utube.png" type="Texture" id=16]
[ext_resource path="res://core.png" type="Texture" id=17]
[ext_resource path="res://Pirate_69x86.png" type="Texture" id=18]
[ext_resource path="res://Nuke_UI.gd" type="Script" id=19]
[ext_resource path="res://Reproc_UI.gd" type="Script" id=20]
[ext_resource path="res://NukeMaker_UI.gd" type="Script" id=21]
[ext_resource path="res://6rocket.png" type="Texture" id=22]
[ext_resource path="res://ctrl_UI.gd" type="Script" id=23]
[ext_resource path="res://music.ogg" type="AudioStream" id=24]
[ext_resource path="res://radiator.png" type="Texture" id=25]

[sub_resource type="DynamicFont" id=1]
size = 44
font_data = ExtResource( 4 )

[sub_resource type="TileSet" id=2]
0/name = "tileset2.png 0"
0/texture = ExtResource( 2 )
0/tex_offset = Vector2( 0, 0 )
0/modulate = Color( 1, 1, 1, 1 )
0/region = Rect2( 320, 128, 32, 32 )
0/tile_mode = 0
0/occluder_offset = Vector2( 0, 0 )
0/navigation_offset = Vector2( 0, 0 )
0/shape_offset = Vector2( 0, 0 )
0/shape_transform = Transform2D( 1, 0, 0, 1, 0, 0 )
0/shape_one_way = false
0/shape_one_way_margin = 0.0
0/shapes = [  ]
0/z_index = 0
1/name = "tileset2.png 1"
1/texture = ExtResource( 2 )
1/tex_offset = Vector2( 0, 0 )
1/modulate = Color( 1, 1, 1, 1 )
1/region = Rect2( 352, 192, 32, 32 )
1/tile_mode = 0
1/occluder_offset = Vector2( 0, 0 )
1/navigation_offset = Vector2( 0, 0 )
1/shape_offset = Vector2( 0, 0 )
1/shape_transform = Transform2D( 1, 0, 0, 1, 0, 0 )
1/shape_one_way = false
1/shape_one_way_margin = 0.0
1/shapes = [  ]
1/z_index = 0
2/name = "tileset2.png 2"
2/texture = ExtResource( 2 )
2/tex_offset = Vector2( 0, 0 )
2/modulate = Color( 1, 1, 1, 1 )
2/region = Rect2( 320, 192, 32, 32 )
2/tile_mode = 0
2/occluder_offset = Vector2( 0, 0 )
2/navigation_offset = Vector2( 0, 0 )
2/shape_offset = Vector2( 0, 0 )
2/shape_transform = Transform2D( 1, 0, 0, 1, 0, 0 )
2/shape_one_way = false
2/shape_one_way_margin = 0.0
2/shapes = [  ]
2/z_index = 0
3/name = "tileset2.png 3"
3/texture = ExtResource( 2 )
3/tex_offset = Vector2( 0, 0 )
3/modulate = Color( 1, 1, 1, 1 )
3/region = Rect2( 352, 128, 32, 32 )
3/tile_mode = 0
3/occluder_offset = Vector2( 0, 0 )
3/navigation_offset = Vector2( 0, 0 )
3/shape_offset = Vector2( 0, 0 )
3/shape_transform = Transform2D( 1, 0, 0, 1, 0, 0 )
3/shape_one_way = false
3/shape_one_way_margin = 0.0
3/shapes = [  ]
3/z_index = 0
4/name = "tileset2.png 4"
4/texture = ExtResource( 2 )
4/tex_offset = Vector2( 0, 0 )
4/modulate = Color( 1, 1, 1, 1 )
4/region = Rect2( 320, 64, 32, 32 )
4/tile_mode = 0
4/occluder_offset = Vector2( 0, 0 )
4/navigation_offset = Vector2( 0, 0 )
4/shape_offset = Vector2( 0, 0 )
4/shape_transform = Transform2D( 1, 0, 0, 1, 0, 0 )
4/shape_one_way = false
4/shape_one_way_margin = 0.0
4/shapes = [  ]
4/z_index = 0
5/name = "tileset2.png 5"
5/texture = ExtResource( 2 )
5/tex_offset = Vector2( 0, 0 )
5/modulate = Color( 1, 1, 1, 1 )
5/region = Rect2( 384, 64, 32, 32 )
5/tile_mode = 0
5/occluder_offset = Vector2( 0, 0 )
5/navigation_offset = Vector2( 0, 0 )
5/shape_offset = Vector2( 0, 0 )
5/shape_transform = Transform2D( 1, 0, 0, 1, 0, 0 )
5/shape_one_way = false
5/shape_one_way_margin = 0.0
5/shapes = [  ]
5/z_index = 0
6/name = "tileset2.png 6"
6/texture = ExtResource( 2 )
6/tex_offset = Vector2( 0, 0 )
6/modulate = Color( 1, 1, 1, 1 )
6/region = Rect2( 352, 32, 32, 32 )
6/tile_mode = 0
6/occluder_offset = Vector2( 0, 0 )
6/navigation_offset = Vector2( 0, 0 )
6/shape_offset = Vector2( 0, 0 )
6/shape_transform = Transform2D( 1, 0, 0, 1, 0, 0 )
6/shape_one_way = false
6/shape_one_way_margin = 0.0
6/shapes = [  ]
6/z_index = 0
7/name = "tileset2.png 7"
7/texture = ExtResource( 2 )
7/tex_offset = Vector2( 0, 0 )
7/modulate = Color( 1, 1, 1, 1 )
7/region = Rect2( 352, 0, 32, 32 )
7/tile_mode = 0
7/occluder_offset = Vector2( 0, 0 )
7/navigation_offset = Vector2( 0, 0 )
7/shape_offset = Vector2( 0, 0 )
7/shape_transform = Transform2D( 1, 0, 0, 1, 0, 0 )
7/shape_one_way = false
7/shape_one_way_margin = 0.0
7/shapes = [  ]
7/z_index = 0
8/name = "tileset2.png 8"
8/texture = ExtResource( 2 )
8/tex_offset = Vector2( 0, 0 )
8/modulate = Color( 1, 1, 1, 1 )
8/region = Rect2( 384, 192, 32, 32 )
8/tile_mode = 0
8/occluder_offset = Vector2( 0, 0 )
8/navigation_offset = Vector2( 0, 0 )
8/shape_offset = Vector2( 0, 0 )
8/shape_transform = Transform2D( 1, 0, 0, 1, 0, 0 )
8/shape_one_way = false
8/shape_one_way_margin = 0.0
8/shapes = [  ]
8/z_index = 0
9/name = "tileset2.png 9"
9/texture = ExtResource( 2 )
9/tex_offset = Vector2( 0, 0 )
9/modulate = Color( 1, 1, 1, 1 )
9/region = Rect2( 384, 0, 32, 32 )
9/tile_mode = 0
9/occluder_offset = Vector2( 0, 0 )
9/navigation_offset = Vector2( 0, 0 )
9/shape_offset = Vector2( 0, 0 )
9/shape_transform = Transform2D( 1, 0, 0, 1, 0, 0 )
9/shape_one_way = false
9/shape_one_way_margin = 0.0
9/shapes = [  ]
9/z_index = 0
10/name = "scifi_tileset.png 10"
10/texture = ExtResource( 6 )
10/tex_offset = Vector2( 0, 0 )
10/modulate = Color( 1, 1, 1, 1 )
10/region = Rect2( 352, 0, 32, 32 )
10/tile_mode = 0
10/occluder_offset = Vector2( 0, 0 )
10/navigation_offset = Vector2( 0, 0 )
10/shape_offset = Vector2( 0, 0 )
10/shape_transform = Transform2D( 1, 0, 0, 1, 0, 0 )
10/shape_one_way = false
10/shape_one_way_margin = 0.0
10/shapes = [  ]
10/z_index = 0

[sub_resource type="RectangleShape2D" id=3]
extents = Vector2( 15, 15 )

[node name="World" type="Node2D"]
script = ExtResource( 8 )

[node name="UI" type="CanvasLayer" parent="."]

[node name="Winner" type="Label" parent="UI"]
visible = false
margin_right = 1031.0
margin_bottom = 617.0
size_flags_horizontal = 2
size_flags_vertical = 0
custom_fonts/font = SubResource( 1 )
custom_colors/font_color_shadow = Color( 0, 0, 0, 1 )
custom_constants/shadow_offset_x = 2
custom_constants/shadow_offset_y = 2
custom_constants/shadow_as_outline = 1
text = "THE WINNER IS:
YOU"
align = 1
valign = 1
__meta__ = {
"_edit_use_anchors_": false
}

[node name="ExitGame" type="Button" parent="UI/Winner"]
margin_left = 384.0
margin_top = 408.0
margin_right = 649.0
margin_bottom = 469.0
size_flags_horizontal = 2
size_flags_vertical = 2
custom_fonts/font = SubResource( 1 )
text = "EXIT GAME"
__meta__ = {
"_edit_use_anchors_": false
}

[node name="Score" type="HBoxContainer" parent="UI"]
margin_right = 1024.0
margin_bottom = 40.0
size_flags_horizontal = 2
size_flags_vertical = 2
script = ExtResource( 3 )
__meta__ = {
"_edit_use_anchors_": false
}

[node name="Core_UI" type="Panel" parent="UI"]
visible = false
margin_left = 179.797
margin_top = 73.4171
margin_right = 779.797
margin_bottom = 473.417
script = ExtResource( 11 )
__meta__ = {
"_edit_use_anchors_": false
}

[node name="close" type="Button" parent="UI/Core_UI"]
margin_left = 576.0
margin_top = 1.0
margin_right = 599.0
margin_bottom = 24.0
text = "X"
__meta__ = {
"_edit_use_anchors_": false
}

[node name="fuel" type="TextureProgress" parent="UI/Core_UI"]
margin_left = 50.0
margin_top = 300.0
margin_right = 195.0
margin_bottom = 335.0
rect_rotation = 270.0
max_value = 10.0
step = 0.01
value = 6.0
texture_under = ExtResource( 9 )
texture_progress = ExtResource( 10 )
nine_patch_stretch = true

[node name="waste" type="TextureProgress" parent="UI/Core_UI"]
margin_left = 50.0
margin_top = 300.0
margin_right = 195.0
margin_bottom = 335.0
rect_rotation = 270.0
max_value = 10.0
step = 0.01
value = 5.0
texture_progress = ExtResource( 14 )
nine_patch_stretch = true

[node name="fuel_txt" type="RichTextLabel" parent="UI/Core_UI"]
margin_left = 100.0
margin_top = 150.0
margin_right = 300.0
margin_bottom = 300.0
text = "Fuel:  5 kg
Waste: 5 kg"
__meta__ = {
"_edit_use_anchors_": false
}

[node name="temp" type="TextureProgress" parent="UI/Core_UI"]
visible = false
margin_left = 303.314
margin_top = 299.37
margin_right = 448.314
margin_bottom = 334.37
rect_rotation = 270.0
max_value = 1000.0
value = 50.0
texture_under = ExtResource( 9 )
texture_progress = ExtResource( 7 )
nine_patch_stretch = true
__meta__ = {
"_edit_use_anchors_": false
}

[node name="temp_txt" type="RichTextLabel" parent="UI/Core_UI"]
visible = false
margin_left = 349.0
margin_top = 156.0
margin_right = 505.0
margin_bottom = 301.0
text = "Temperature: 600 K
Heat Generated: 5 MW
Turbine Cooling: 3 MW
Power: 2 MW"
__meta__ = {
"_edit_use_anchors_": false
}

[node name="insert" type="Button" parent="UI/Core_UI"]
margin_left = 80.9086
margin_top = 59.1831
margin_right = 161.909
margin_bottom = 99.1831
text = "Insert Fuel"

[node name="remove" type="Button" parent="UI/Core_UI"]
margin_left = 180.546
margin_top = 59.1831
margin_right = 261.546
margin_bottom = 99.1831
text = "Remove Waste"

[node name="toggle pwr" type="Button" parent="UI/Core_UI"]
margin_left = 314.645
margin_top = 58.434
margin_right = 438.645
margin_bottom = 98.434
text = "Manual Shutdown"
__meta__ = {
"_edit_use_anchors_": false
}

[node name="Turbine_UI" type="Panel" parent="UI"]
visible = false
margin_left = 179.797
margin_top = 73.4171
margin_right = 779.797
margin_bottom = 473.417
script = ExtResource( 5 )
__meta__ = {
"_edit_use_anchors_": false
}

[node name="close" type="Button" parent="UI/Turbine_UI"]
margin_left = 576.0
margin_top = 1.0
margin_right = 599.0
margin_bottom = 24.0
text = "X"
__meta__ = {
"_edit_use_anchors_": false
}

[node name="hp" type="TextureProgress" parent="UI/Turbine_UI"]
margin_left = 51.2426
margin_top = 285.729
margin_right = 196.243
margin_bottom = 320.729
rect_rotation = 270.0
max_value = 10.0
step = 0.01
value = 10.0
texture_under = ExtResource( 9 )
texture_progress = ExtResource( 10 )
nine_patch_stretch = true
__meta__ = {
"_edit_use_anchors_": false
}

[node name="fuel_txt" type="RichTextLabel" parent="UI/Turbine_UI"]
margin_left = 37.0
margin_top = 103.0
margin_right = 154.0
margin_bottom = 125.0
text = "Turbine Health"
__meta__ = {
"_edit_use_anchors_": false
}

[node name="temp" type="TextureProgress" parent="UI/Turbine_UI"]
margin_left = 365.089
margin_top = 288.732
margin_right = 510.089
margin_bottom = 323.732
rect_rotation = 270.0
max_value = 1000.0
value = 50.0
texture_under = ExtResource( 9 )
texture_progress = ExtResource( 7 )
nine_patch_stretch = true
__meta__ = {
"_edit_use_anchors_": false
}

[node name="power" type="TextureProgress" parent="UI/Turbine_UI"]
margin_left = 481.631
margin_top = 289.921
margin_right = 626.631
margin_bottom = 324.921
rect_rotation = 270.0
max_value = 1000.0
value = 50.0
texture_under = ExtResource( 9 )
texture_progress = ExtResource( 14 )
nine_patch_stretch = true
__meta__ = {
"_edit_use_anchors_": false
}

[node name="temp_txt" type="RichTextLabel" parent="UI/Turbine_UI"]
margin_left = 345.0
margin_top = 110.0
margin_right = 561.0
margin_bottom = 133.0
text = "Temperature             Power"
__meta__ = {
"_edit_use_anchors_": false
}

[node name="toggle pwr" type="Button" parent="UI/Turbine_UI"]
margin_left = 117.237
margin_top = 271.302
margin_right = 241.237
margin_bottom = 311.302
text = "Repair Turbine"
__meta__ = {
"_edit_use_anchors_": false
}

[node name="turbine" type="Sprite" parent="UI/Turbine_UI"]
position = Vector2( 225.92, 213.392 )
scale = Vector2( 0.2, 0.2 )
texture = ExtResource( 15 )

[node name="Fuel_UI" type="Panel" parent="UI"]
visible = false
margin_left = 179.797
margin_top = 73.4171
margin_right = 779.797
margin_bottom = 473.417
script = ExtResource( 12 )
__meta__ = {
"_edit_use_anchors_": false
}

[node name="Arrow01" type="Sprite" parent="UI/Fuel_UI"]
position = Vector2( 225.035, 267.164 )
texture = ExtResource( 13 )

[node name="close" type="Button" parent="UI/Fuel_UI"]
margin_left = 576.0
margin_top = 1.0
margin_right = 599.0
margin_bottom = 24.0
text = "X"
__meta__ = {
"_edit_use_anchors_": false
}

[node name="U" type="TextureProgress" parent="UI/Fuel_UI"]
margin_left = 50.0
margin_top = 300.0
margin_right = 200.0
margin_bottom = 330.0
rect_rotation = 270.0
max_value = 6.0
step = 0.01
value = 6.0
texture_under = ExtResource( 9 )
texture_progress = ExtResource( 14 )
nine_patch_stretch = true
__meta__ = {
"_edit_use_anchors_": false
}

[node name="U_txt" type="RichTextLabel" parent="UI/Fuel_UI"]
margin_left = 100.0
margin_top = 150.0
margin_right = 250.0
margin_bottom = 250.0
text = "Uranium:"
__meta__ = {
"_edit_use_anchors_": false
}

[node name="fuel" type="TextureProgress" parent="UI/Fuel_UI"]
margin_left = 300.0
margin_top = 300.0
margin_right = 450.0
margin_bottom = 330.0
rect_rotation = 270.0
max_value = 6.0
step = 0.01
value = 5.0
texture_under = ExtResource( 9 )
texture_progress = ExtResource( 10 )
nine_patch_stretch = true
__meta__ = {
"_edit_use_anchors_": false
}

[node name="fuel_txt" type="RichTextLabel" parent="UI/Fuel_UI"]
margin_left = 349.0
margin_top = 156.0
margin_right = 505.0
margin_bottom = 301.0
text = "Fuel Rods:"
__meta__ = {
"_edit_use_anchors_": false
}

[node name="insert" type="Button" parent="UI/Fuel_UI"]
margin_left = 78.9063
margin_top = 79.2057
margin_right = 187.906
margin_bottom = 119.206
text = "Insert Uranium"

[node name="remove" type="Button" parent="UI/Fuel_UI"]
margin_left = 304.32
margin_top = 77.9916
margin_right = 412.32
margin_bottom = 117.992
text = "Take Fuel Rod"

[node name="toggle pwr" type="Button" parent="UI/Fuel_UI"]
margin_left = 461.016
margin_top = 347.641
margin_right = 585.016
margin_bottom = 387.641
text = "Manual Shutdown"
__meta__ = {
"_edit_use_anchors_": false
}

[node name="ctrl_UI" type="Panel" parent="UI"]
visible = false
margin_left = 50.0
margin_top = 50.0
margin_right = 850.0
margin_bottom = 550.0
script = ExtResource( 23 )
__meta__ = {
"_edit_use_anchors_": false
}

[node name="arrow" type="Sprite" parent="UI/ctrl_UI"]
position = Vector2( 320, 230 )
rotation = 1.5708
texture = ExtResource( 13 )

[node name="arrow2" type="Sprite" parent="UI/ctrl_UI"]
position = Vector2( 464.413, 310.229 )
texture = ExtResource( 13 )

[node name="close" type="Button" parent="UI/ctrl_UI"]
margin_left = 775.0
margin_top = 1.0
margin_right = 798.0
margin_bottom = 24.0
text = "X"
__meta__ = {
"_edit_use_anchors_": false
}

[node name="ctrl" type="HSlider" parent="UI/ctrl_UI"]
margin_left = 50.0
margin_top = 80.0
margin_right = 200.0
margin_bottom = 110.0
tick_count = 10

[node name="txt" type="RichTextLabel" parent="UI/ctrl_UI/ctrl"]
margin_top = -20.0
margin_right = 200.0
text = "Control Rod Depth"
__meta__ = {
"_edit_use_anchors_": false
}

[node name="heat" type="TextureProgress" parent="UI/ctrl_UI"]
margin_left = 50.0
margin_top = 150.0
margin_right = 200.0
margin_bottom = 180.0
max_value = 100.0
step = 0.1
value = 5.0
texture_under = ExtResource( 9 )
texture_progress = ExtResource( 7 )
nine_patch_stretch = true
__meta__ = {
"_edit_use_anchors_": false
}

[node name="txt" type="RichTextLabel" parent="UI/ctrl_UI/heat"]
margin_top = -20.0
margin_right = 200.0
text = "Heating Rate"
__meta__ = {
"_edit_use_anchors_": false
}

[node name="cool" type="TextureProgress" parent="UI/ctrl_UI"]
margin_left = 250.0
margin_top = 150.0
margin_right = 400.0
margin_bottom = 180.0
max_value = 100.0
step = 0.1
value = 5.0
texture_under = ExtResource( 9 )
texture_progress = ExtResource( 7 )
nine_patch_stretch = true
__meta__ = {
"_edit_use_anchors_": false
}

[node name="txt" type="RichTextLabel" parent="UI/ctrl_UI/cool"]
margin_top = -20.0
margin_right = 150.0
text = "Cooling Rate"
__meta__ = {
"_edit_use_anchors_": false
}

[node name="temp" type="TextureProgress" parent="UI/ctrl_UI"]
margin_left = 50.0
margin_top = 230.0
margin_right = 200.0
margin_bottom = 260.0
max_value = 1500.0
step = 1.0
value = 300.0
texture_under = ExtResource( 9 )
texture_progress = ExtResource( 7 )
nine_patch_stretch = true
__meta__ = {
"_edit_use_anchors_": false
}

[node name="txt" type="RichTextLabel" parent="UI/ctrl_UI/temp"]
margin_top = -20.0
margin_right = 200.0
text = "Temperature"
__meta__ = {
"_edit_use_anchors_": false
}

[node name="rad" type="TextureProgress" parent="UI/ctrl_UI"]
margin_left = 250.0
margin_top = 300.0
margin_right = 400.0
margin_bottom = 330.0
max_value = 1500.0
step = 1.0
value = 300.0
texture_under = ExtResource( 9 )
texture_progress = ExtResource( 7 )
nine_patch_stretch = true
__meta__ = {
"_edit_use_anchors_": false
}

[node name="txt" type="RichTextLabel" parent="UI/ctrl_UI/rad"]
margin_top = -20.0
margin_right = 200.0
text = "Radiator Temp:"
__meta__ = {
"_edit_use_anchors_": false
}

[node name="rad_cool" type="TextureProgress" parent="UI/ctrl_UI"]
margin_left = 250.0
margin_top = 370.0
margin_right = 400.0
margin_bottom = 400.0
max_value = 100.0
step = 0.1
value = 100.0
texture_under = ExtResource( 9 )
texture_progress = ExtResource( 7 )
nine_patch_stretch = true
__meta__ = {
"_edit_use_anchors_": false
}

[node name="txt" type="RichTextLabel" parent="UI/ctrl_UI/rad_cool"]
margin_top = -20.0
margin_right = 200.0
text = "Radiator Cooling"
__meta__ = {
"_edit_use_anchors_": false
}

[node name="pump" type="HSlider" parent="UI/ctrl_UI"]
margin_left = 250.0
margin_top = 80.0
margin_right = 400.0
margin_bottom = 110.0
tick_count = 10

[node name="txt" type="RichTextLabel" parent="UI/ctrl_UI/pump"]
margin_top = -20.0
margin_right = 150.0
text = "Pump Speed"
__meta__ = {
"_edit_use_anchors_": false
}

[node name="eff" type="TextureProgress" parent="UI/ctrl_UI"]
margin_left = 550.0
margin_top = 220.0
margin_right = 700.0
margin_bottom = 250.0
max_value = 100.0
step = 0.1
value = 5.0
texture_under = ExtResource( 9 )
texture_progress = ExtResource( 10 )
nine_patch_stretch = true
__meta__ = {
"_edit_use_anchors_": false
}

[node name="txt" type="RichTextLabel" parent="UI/ctrl_UI/eff"]
margin_top = -20.0
margin_right = 150.0
text = "Efficiency"
__meta__ = {
"_edit_use_anchors_": false
}

[node name="pwr" type="TextureProgress" parent="UI/ctrl_UI"]
margin_left = 550.0
margin_top = 300.0
margin_right = 700.0
margin_bottom = 330.0
max_value = 100.0
step = 0.1
value = 6.0
texture_under = ExtResource( 9 )
texture_progress = ExtResource( 14 )
nine_patch_stretch = true
__meta__ = {
"_edit_use_anchors_": false
}

[node name="txt" type="RichTextLabel" parent="UI/ctrl_UI/pwr"]
margin_top = -20.0
margin_right = 150.0
text = "Power"
__meta__ = {
"_edit_use_anchors_": false
}

[node name="SCRAM" type="Button" parent="UI/ctrl_UI"]
margin_left = 50.0
margin_top = 300.0
margin_right = 150.0
margin_bottom = 350.0
text = "SCRAM"

[node name="NukeMaker_UI" type="Panel" parent="UI"]
visible = false
margin_left = 179.797
margin_top = 73.4171
margin_right = 779.797
margin_bottom = 473.417
script = ExtResource( 21 )
__meta__ = {
"_edit_use_anchors_": false
}

[node name="Arrow" type="Sprite" parent="UI/NukeMaker_UI"]
position = Vector2( 271.483, 225.961 )
texture = ExtResource( 13 )

[node name="close" type="Button" parent="UI/NukeMaker_UI"]
margin_left = 576.0
margin_top = 1.0
margin_right = 599.0
margin_bottom = 24.0
text = "X"
__meta__ = {
"_edit_use_anchors_": false
}

[node name="A" type="TextureProgress" parent="UI/NukeMaker_UI"]
margin_left = 50.0
margin_top = 300.0
margin_right = 200.0
margin_bottom = 330.0
rect_rotation = 270.0
max_value = 6.0
step = 0.01
value = 6.0
texture_under = ExtResource( 9 )
texture_progress = ExtResource( 14 )
nine_patch_stretch = true
__meta__ = {
"_edit_use_anchors_": false
}

[node name="A_txt" type="RichTextLabel" parent="UI/NukeMaker_UI"]
margin_left = 100.0
margin_top = 150.0
margin_right = 250.0
margin_bottom = 250.0
__meta__ = {
"_edit_use_anchors_": false
}

[node name="prog" type="TextureProgress" parent="UI/NukeMaker_UI"]
margin_left = 166.069
margin_top = 281.892
margin_right = 316.069
margin_bottom = 311.892
max_value = 1.0
step = 0.01
value = 0.5
texture_under = ExtResource( 9 )
texture_progress = ExtResource( 10 )
nine_patch_stretch = true
__meta__ = {
"_edit_use_anchors_": false
}

[node name="B" type="TextureProgress" parent="UI/NukeMaker_UI"]
margin_left = 331.358
margin_top = 174.975
margin_right = 481.358
margin_bottom = 204.975
max_value = 6.0
value = 3.0
texture_under = ExtResource( 9 )
texture_progress = ExtResource( 22 )
nine_patch_stretch = true
__meta__ = {
"_edit_use_anchors_": false
}

[node name="B_txt" type="RichTextLabel" parent="UI/NukeMaker_UI"]
margin_left = 367.0
margin_top = 213.0
margin_right = 532.0
margin_bottom = 284.0
__meta__ = {
"_edit_use_anchors_": false
}

[node name="insert" type="Button" parent="UI/NukeMaker_UI"]
margin_left = 78.9063
margin_top = 79.2057
margin_right = 187.906
margin_bottom = 119.206
text = "Insert Plutonium"

[node name="remove" type="Button" parent="UI/NukeMaker_UI"]
margin_left = 363.503
margin_top = 115.449
margin_right = 471.503
margin_bottom = 155.45
text = "Take Nuke"
__meta__ = {
"_edit_use_anchors_": false
}

[node name="toggle pwr" type="Button" parent="UI/NukeMaker_UI"]
margin_left = 461.016
margin_top = 347.641
margin_right = 585.016
margin_bottom = 387.641
text = "Manual Shutdown"
__meta__ = {
"_edit_use_anchors_": false
}

[node name="Reproc_UI" type="Panel" parent="UI"]
visible = false
margin_left = 179.797
margin_top = 73.4171
margin_right = 779.797
margin_bottom = 473.417
script = ExtResource( 20 )
__meta__ = {
"_edit_use_anchors_": false
}

[node name="Arrow" type="Sprite" parent="UI/Reproc_UI"]
position = Vector2( 269.96, 217.674 )
rotation = -0.785398
texture = ExtResource( 13 )

[node name="close" type="Button" parent="UI/Reproc_UI"]
margin_left = 576.0
margin_top = 1.0
margin_right = 599.0
margin_bottom = 24.0
text = "X"
__meta__ = {
"_edit_use_anchors_": false
}

[node name="waste" type="TextureProgress" parent="UI/Reproc_UI"]
margin_left = 50.0
margin_top = 300.0
margin_right = 200.0
margin_bottom = 330.0
rect_rotation = 270.0
max_value = 6.0
step = 0.01
value = 6.0
texture_under = ExtResource( 9 )
texture_progress = ExtResource( 14 )
nine_patch_stretch = true
__meta__ = {
"_edit_use_anchors_": false
}

[node name="U_txt" type="RichTextLabel" parent="UI/Reproc_UI"]
margin_left = 100.0
margin_top = 150.0
margin_right = 250.0
margin_bottom = 250.0
text = "Text"
__meta__ = {
"_edit_use_anchors_": false
}

[node name="fuel" type="TextureProgress" parent="UI/Reproc_UI"]
margin_left = 331.729
margin_top = 202.725
margin_right = 429.729
margin_bottom = 233.725
rect_rotation = 270.0
max_value = 6.0
step = 0.01
value = 5.0
texture_under = ExtResource( 9 )
texture_progress = ExtResource( 10 )
nine_patch_stretch = true
__meta__ = {
"_edit_use_anchors_": false
}

[node name="Pu" type="TextureProgress" parent="UI/Reproc_UI"]
margin_left = 331.729
margin_top = 324.838
margin_right = 429.729
margin_bottom = 355.838
rect_rotation = 270.0
max_value = 6.0
step = 0.01
value = 5.0
texture_under = ExtResource( 9 )
texture_progress = ExtResource( 10 )
nine_patch_stretch = true
__meta__ = {
"_edit_use_anchors_": false
}

[node name="fuel_txt" type="RichTextLabel" parent="UI/Reproc_UI"]
margin_left = 391.143
margin_top = 174.227
margin_right = 576.143
margin_bottom = 250.227
text = "Text"
__meta__ = {
"_edit_use_anchors_": false
}

[node name="insert" type="Button" parent="UI/Reproc_UI"]
margin_left = 33.2079
margin_top = 79.2057
margin_right = 142.208
margin_bottom = 119.206
text = "Insert Waste"

[node name="take_Fuel" type="Button" parent="UI/Reproc_UI"]
margin_left = 373.408
margin_top = 105.581
margin_right = 481.408
margin_bottom = 145.581
text = "Take Fuel Rod"

[node name="take_Pu" type="Button" parent="UI/Reproc_UI"]
margin_left = 374.996
margin_top = 281.783
margin_right = 485.996
margin_bottom = 321.783
text = "Take Plutonium"

[node name="toggle pwr" type="Button" parent="UI/Reproc_UI"]
margin_left = 461.016
margin_top = 347.641
margin_right = 585.016
margin_bottom = 387.641
text = "Manual Shutdown"
__meta__ = {
"_edit_use_anchors_": false
}

[node name="Pu_Toggle" type="Button" parent="UI/Reproc_UI"]
margin_left = 200.827
margin_top = 106.04
margin_right = 302.827
margin_bottom = 146.04
text = "Switch Output"
__meta__ = {
"_edit_use_anchors_": false
}

[node name="Nuke_UI" type="Panel" parent="UI"]
visible = false
margin_left = 50.0
margin_top = 50.0
margin_right = 1150.0
margin_bottom = 750.0
script = ExtResource( 19 )
__meta__ = {
"_edit_use_anchors_": false
}

[node name="close" type="Button" parent="UI/Nuke_UI"]
margin_left = 1075.0
margin_right = 1100.0
margin_bottom = 25.0
text = "X"
__meta__ = {
"_edit_use_anchors_": false
}

[node name="shields" type="TextureProgress" parent="UI/Nuke_UI"]
margin_left = 76.8366
margin_top = 20.2578
margin_right = 221.837
margin_bottom = 40.2578
max_value = 6.0
step = 0.01
value = 6.0
texture_under = ExtResource( 9 )
texture_progress = ExtResource( 7 )
nine_patch_stretch = true
__meta__ = {
"_edit_use_anchors_": false
}

[node name="U_txt" type="RichTextLabel" parent="UI/Nuke_UI"]
margin_left = 10.0
margin_top = 26.0
margin_right = 73.0
margin_bottom = 63.0
text = "Shields:"
__meta__ = {
"_edit_use_anchors_": false
}

[node name="nukes" type="TextureProgress" parent="UI/Nuke_UI"]
margin_left = 77.0
margin_top = 49.0
margin_right = 222.0
margin_bottom = 81.0
max_value = 6.0
value = 5.0
texture_under = ExtResource( 9 )
texture_progress = ExtResource( 22 )
nine_patch_stretch = true
__meta__ = {
"_edit_use_anchors_": false
}

[node name="fuel_txt" type="RichTextLabel" parent="UI/Nuke_UI"]
margin_left = 14.63
margin_top = 50.502
margin_right = 88.63
margin_bottom = 87.502
text = "Nukes:"
__meta__ = {
"_edit_use_anchors_": false
}

[node name="insert" type="Button" parent="UI/Nuke_UI"]
margin_left = 257.977
margin_top = 23.0791
margin_right = 366.977
margin_bottom = 63.0794
text = "Insert Nuke"
__meta__ = {
"_edit_use_anchors_": false
}

[node name="remove" type="Button" parent="UI/Nuke_UI"]
visible = false
margin_left = 387.174
margin_top = 24.5377
margin_right = 495.174
margin_bottom = 64.5381
text = "Take Nuke"
__meta__ = {
"_edit_use_anchors_": false
}

[node name="ship" type="Sprite" parent="UI/Nuke_UI"]
position = Vector2( 550, 350 )
scale = Vector2( 0.5, 0.5 )
texture = ExtResource( 18 )

[node name="radiator" type="Sprite" parent="."]
position = Vector2( 170, -50 )
rotation = -0.0349066
texture = ExtResource( 25 )

[node name="radiator2" type="Sprite" parent="."]
position = Vector2( 170, 690 )
rotation = 0.0349066
scale = Vector2( 1, -1 )
texture = ExtResource( 25 )

[node name="floorTiles" type="TileMap" parent="."]
tile_set = ExtResource( 1 )
cell_size = Vector2( 32, 32 )
collision_layer = 3
collision_mask = 3
format = 1
tile_data = PoolIntArray( -131056, 0, 0, -131055, 0, 1, -131054, 0, 1, -131053, 0, 2, -131051, 0, 0, -131050, 0, 1, -131049, 0, 1, -131048, 0, 1, -131047, 0, 1, -131046, 0, 2, -65520, 0, 65536, -65519, 0, 65537, -65518, 0, 65537, -65517, 0, 65538, -65515, 0, 65536, -65514, 0, 65537, -65513, 0, 65537, -65512, 0, 65537, -65511, 0, 65537, -65510, 0, 65538, 3, 0, 0, 4, 0, 1, 5, 0, 1, 6, 0, 1, 7, 0, 1, 8, 0, 1, 9, 0, 1, 10, 0, 1, 11, 0, 1, 12, 0, 1, 13, 0, 1, 14, 0, 1, 15, 0, 1, 16, 0, 3, 17, 0, 65537, 18, 0, 65537, 19, 0, 65538, 20, 2, 0, 21, 0, 65536, 22, 0, 65537, 23, 0, 65537, 24, 0, 65537, 25, 0, 65537, 26, 0, 65538, 46, 0, 0, 47, 0, 1, 48, 0, 1, 49, 0, 1, 50, 0, 1, 51, 0, 1, 52, 0, 2, 55, 0, 0, 56, 0, 1, 57, 0, 1, 58, 0, 1, 59, 0, 1, 60, 0, 1, 61, 0, 1, 62, 0, 1, 63, 0, 1, 64, 0, 2, 65539, 0, 65536, 65540, 0, 65537, 65541, 0, 65537, 65542, 0, 65537, 65543, 0, 65537, 65544, 0, 65537, 65545, 0, 65537, 65546, 0, 65537, 65547, 0, 65537, 65548, 0, 65537, 65549, 0, 65537, 65550, 0, 65540, 65551, 0, 131073, 65552, 0, 65539, 65553, 0, 65537, 65554, 0, 65537, 65555, 0, 65538, 65556, 2, 0, 65557, 0, 65536, 65558, 0, 65537, 65559, 0, 65537, 65560, 0, 65537, 65561, 0, 65537, 65562, 0, 65538, 65582, 0, 65536, 65583, 0, 65537, 65584, 0, 65537, 65585, 0, 65537, 65586, 0, 65537, 65587, 0, 65537, 65588, 0, 65538, 65591, 0, 65536, 65592, 0, 65537, 65593, 0, 65537, 65594, 0, 65537, 65595, 0, 65537, 65596, 0, 65537, 65597, 0, 65537, 65598, 0, 65537, 65599, 0, 65537, 65600, 0, 65538, 131075, 0, 131072, 131076, 0, 131073, 131077, 0, 131073, 131078, 0, 131073, 131079, 0, 131073, 131080, 0, 131073, 131081, 0, 131073, 131082, 0, 131073, 131083, 0, 131073, 131084, 0, 131073, 131085, 0, 131073, 131086, 0, 131074, 131087, 2, 0, 131088, 0, 65536, 131089, 0, 65537, 131090, 0, 65537, 131091, 0, 65538, 131093, 0, 131072, 131094, 0, 131073, 131095, 0, 131073, 131096, 0, 131073, 131097, 0, 65539, 131098, 0, 65538, 131100, 0, 0, 131101, 0, 1, 131102, 0, 1, 131103, 0, 1, 131104, 0, 1, 131105, 0, 1, 131106, 0, 1, 131107, 0, 1, 131108, 0, 1, 131109, 0, 1, 131110, 0, 1, 131111, 0, 1, 131112, 0, 1, 131113, 0, 1, 131114, 0, 1, 131115, 0, 1, 131116, 0, 2, 131118, 0, 65536, 131119, 0, 65537, 131120, 0, 65537, 131121, 0, 65537, 131122, 0, 65537, 131123, 0, 65537, 131124, 0, 65538, 131127, 0, 131072, 131128, 0, 131073, 131129, 0, 131073, 131130, 0, 131073, 131131, 0, 65539, 131132, 0, 65540, 131133, 0, 131073, 131134, 0, 131073, 131135, 0, 131073, 131136, 0, 131074, 196624, 0, 65536, 196625, 0, 65537, 196626, 0, 65537, 196627, 0, 65538, 196633, 0, 65536, 196634, 0, 65538, 196636, 0, 65536, 196637, 0, 65537, 196638, 0, 65537, 196639, 0, 65537, 196640, 0, 65537, 196641, 0, 65537, 196642, 0, 65537, 196643, 0, 65537, 196644, 0, 65537, 196645, 0, 65537, 196646, 0, 65537, 196647, 0, 65537, 196648, 0, 65537, 196649, 0, 65537, 196650, 0, 65537, 196651, 0, 65537, 196652, 0, 65538, 196654, 0, 65536, 196655, 0, 65537, 196656, 0, 65537, 196657, 0, 65537, 196658, 0, 65537, 196659, 0, 65537, 196660, 0, 65538, 196667, 0, 65536, 196668, 0, 65538, 262146, 0, 0, 262147, 0, 1, 262148, 0, 1, 262149, 0, 1, 262150, 0, 1, 262151, 0, 1, 262152, 0, 1, 262153, 0, 2, 262155, 0, 0, 262156, 0, 1, 262157, 0, 1, 262158, 0, 1, 262159, 0, 1, 262160, 0, 3, 262161, 0, 65537, 262162, 0, 65537, 262163, 0, 4, 262164, 0, 1, 262165, 0, 1, 262166, 0, 1, 262167, 0, 1, 262168, 0, 1, 262169, 0, 3, 262170, 0, 4, 262171, 0, 1, 262172, 0, 3, 262173, 0, 65537, 262174, 0, 65537, 262175, 0, 65537, 262176, 0, 65537, 262177, 0, 65537, 262178, 0, 65537, 262179, 0, 65537, 262180, 0, 65537, 262181, 0, 65537, 262182, 0, 65537, 262183, 0, 65537, 262184, 0, 65537, 262185, 0, 65537, 262186, 0, 65537, 262187, 0, 65537, 262188, 0, 65538, 262190, 0, 65536, 262191, 0, 65537, 262192, 0, 65537, 262193, 0, 65537, 262194, 0, 65537, 262195, 0, 65537, 262196, 0, 65538, 262203, 0, 65536, 262204, 0, 65538, 327682, 0, 65536, 327683, 0, 65537, 327684, 0, 65537, 327685, 0, 65537, 327686, 0, 65537, 327687, 0, 65537, 327688, 0, 65537, 327689, 0, 65538, 327691, 0, 65536, 327692, 0, 65540, 327693, 0, 131073, 327694, 0, 131073, 327695, 0, 131073, 327696, 0, 131073, 327697, 0, 131073, 327698, 0, 65539, 327699, 0, 65540, 327700, 0, 131073, 327701, 0, 131073, 327702, 0, 131073, 327703, 0, 131073, 327704, 0, 131073, 327705, 0, 131073, 327706, 0, 131073, 327707, 0, 131073, 327708, 0, 131073, 327709, 0, 131073, 327710, 0, 131073, 327711, 0, 131073, 327712, 0, 131073, 327713, 0, 131073, 327714, 0, 131073, 327715, 0, 131073, 327716, 0, 131073, 327717, 0, 131073, 327718, 0, 131073, 327719, 0, 131073, 327720, 0, 131073, 327721, 0, 131073, 327722, 0, 131073, 327723, 0, 65539, 327724, 0, 65538, 327726, 0, 65536, 327727, 0, 65537, 327728, 0, 65537, 327729, 0, 65537, 327730, 0, 65537, 327731, 0, 65537, 327732, 0, 65538, 327734, 0, 0, 327735, 0, 1, 327736, 0, 1, 327737, 0, 1, 327738, 0, 1, 327739, 0, 3, 327740, 0, 4, 327741, 0, 1, 327742, 0, 2, 393218, 0, 65536, 393219, 0, 65537, 393220, 0, 65537, 393221, 0, 65537, 393222, 0, 65537, 393223, 0, 65537, 393224, 0, 65537, 393225, 0, 65538, 393227, 0, 65536, 393228, 0, 65538, 393234, 0, 65536, 393235, 0, 65538, 393259, 0, 65536, 393260, 0, 65538, 393262, 0, 65536, 393263, 0, 65540, 393264, 0, 131073, 393265, 0, 131073, 393266, 0, 131073, 393267, 0, 65539, 393268, 0, 65538, 393270, 0, 65536, 393271, 0, 65537, 393272, 0, 65537, 393273, 0, 65537, 393274, 0, 65537, 393275, 0, 65537, 393276, 0, 65537, 393277, 0, 65537, 393278, 0, 65538, 393284, 0, 0, 393285, 0, 1, 393286, 0, 2, 458754, 0, 65536, 458755, 0, 65537, 458756, 0, 65537, 458757, 0, 65537, 458758, 0, 65537, 458759, 0, 65537, 458760, 0, 65537, 458761, 0, 65538, 458763, 0, 65536, 458764, 0, 65538, 458766, 0, 0, 458767, 0, 1, 458768, 0, 2, 458770, 0, 65536, 458771, 0, 65538, 458773, 0, 0, 458774, 0, 1, 458775, 0, 1, 458776, 0, 2, 458787, 0, 0, 458788, 0, 1, 458789, 0, 1, 458790, 0, 1, 458791, 0, 1, 458792, 0, 1, 458793, 0, 2, 458795, 0, 65536, 458796, 0, 65538, 458798, 0, 65536, 458799, 0, 65538, 458803, 0, 65536, 458804, 0, 65538, 458806, 0, 65536, 458807, 0, 65537, 458808, 0, 65537, 458809, 0, 65537, 458810, 0, 65537, 458811, 0, 65537, 458812, 0, 65537, 458813, 0, 65537, 458814, 0, 65538, 458820, 0, 65536, 458821, 0, 65537, 458822, 0, 65538, 524290, 0, 131072, 524291, 0, 131073, 524292, 0, 131073, 524293, 0, 131073, 524294, 0, 131073, 524295, 0, 131073, 524296, 0, 65539, 524297, 0, 65538, 524299, 0, 65536, 524300, 0, 4, 524301, 0, 1, 524302, 0, 3, 524303, 0, 65537, 524304, 0, 65538, 524306, 0, 65536, 524307, 0, 65538, 524309, 0, 65536, 524310, 0, 65537, 524311, 0, 65537, 524312, 0, 65538, 524323, 0, 65536, 524324, 0, 65537, 524325, 0, 65537, 524326, 0, 65537, 524327, 0, 65537, 524328, 0, 65537, 524329, 0, 65538, 524331, 0, 65536, 524332, 0, 65538, 524334, 0, 65536, 524335, 0, 65538, 524337, 0, 0, 524338, 0, 1, 524339, 0, 3, 524340, 0, 65538, 524342, 0, 65536, 524343, 0, 65537, 524344, 0, 65537, 524345, 0, 65537, 524346, 0, 65537, 524347, 0, 65537, 524348, 0, 65537, 524349, 0, 65537, 524350, 0, 65538, 524356, 0, 65536, 524357, 0, 65537, 524358, 0, 65538, 589825, 2, 0, 589826, 2, 0, 589827, 2, 0, 589832, 0, 65536, 589833, 0, 4, 589834, 0, 1, 589835, 0, 3, 589836, 0, 65537, 589837, 0, 65537, 589838, 0, 65537, 589839, 0, 65537, 589840, 0, 65538, 589842, 0, 65536, 589843, 0, 4, 589844, 0, 1, 589845, 0, 3, 589846, 0, 65537, 589847, 0, 65537, 589848, 0, 65538, 589859, 0, 65536, 589860, 0, 65537, 589861, 0, 65537, 589862, 0, 65537, 589863, 0, 65537, 589864, 0, 65537, 589865, 0, 4, 589866, 0, 1, 589867, 0, 3, 589868, 0, 4, 589869, 0, 1, 589870, 0, 3, 589871, 0, 65538, 589873, 0, 65536, 589874, 0, 65537, 589875, 0, 65537, 589876, 0, 4, 589877, 0, 1, 589878, 0, 3, 589879, 0, 65537, 589880, 0, 65537, 589881, 0, 65537, 589882, 0, 65537, 589883, 0, 65537, 589884, 0, 65537, 589885, 0, 65537, 589886, 0, 4, 589887, 0, 1, 589888, 0, 1, 589889, 0, 1, 589890, 0, 1, 589891, 0, 1, 589892, 0, 3, 589893, 0, 65537, 589894, 0, 65538, 655362, 2, 0, 655368, 0, 65536, 655369, 0, 65540, 655370, 0, 131073, 655371, 0, 65539, 655372, 0, 65537, 655373, 0, 65537, 655374, 0, 65537, 655375, 0, 65537, 655376, 0, 65538, 655378, 0, 65536, 655379, 0, 65540, 655380, 0, 131073, 655381, 0, 65539, 655382, 0, 65537, 655383, 0, 65537, 655384, 0, 65538, 655395, 0, 65536, 655396, 0, 65537, 655397, 0, 65537, 655398, 0, 65537, 655399, 0, 65537, 655400, 0, 65537, 655401, 0, 65540, 655402, 0, 131073, 655403, 0, 65539, 655404, 0, 65540, 655405, 0, 131073, 655406, 0, 65539, 655407, 0, 65538, 655409, 0, 65536, 655410, 0, 65537, 655411, 0, 65537, 655412, 0, 65540, 655413, 0, 131073, 655414, 0, 65539, 655415, 0, 65537, 655416, 0, 65537, 655417, 0, 65537, 655418, 0, 65537, 655419, 0, 65537, 655420, 0, 65537, 655421, 0, 65537, 655422, 0, 65540, 655423, 0, 131073, 655424, 0, 131073, 655425, 0, 131073, 655426, 0, 131073, 655427, 0, 131073, 655428, 0, 65539, 655429, 0, 65537, 655430, 0, 65538, 720898, 0, 0, 720899, 0, 1, 720900, 0, 1, 720901, 0, 1, 720902, 0, 1, 720903, 0, 1, 720904, 0, 3, 720905, 0, 65538, 720907, 0, 65536, 720908, 0, 65540, 720909, 0, 131073, 720910, 0, 65539, 720911, 0, 65537, 720912, 0, 65538, 720914, 0, 65536, 720915, 0, 65538, 720917, 0, 65536, 720918, 0, 65537, 720919, 0, 65537, 720920, 0, 65538, 720931, 0, 65536, 720932, 0, 65537, 720933, 0, 65537, 720934, 0, 65537, 720935, 0, 65537, 720936, 0, 65537, 720937, 0, 65538, 720939, 0, 65536, 720940, 0, 65538, 720942, 0, 65536, 720943, 0, 65538, 720945, 0, 131072, 720946, 0, 131073, 720947, 0, 65539, 720948, 0, 65538, 720950, 0, 65536, 720951, 0, 65537, 720952, 0, 65537, 720953, 0, 65537, 720954, 0, 65537, 720955, 0, 65537, 720956, 0, 65537, 720957, 0, 65537, 720958, 0, 65538, 720964, 0, 65536, 720965, 0, 65537, 720966, 0, 65538, 786434, 0, 65536, 786435, 0, 65537, 786436, 0, 65537, 786437, 0, 65537, 786438, 0, 65537, 786439, 0, 65537, 786440, 0, 65537, 786441, 0, 65538, 786443, 0, 65536, 786444, 0, 65538, 786446, 0, 131072, 786447, 0, 131073, 786448, 0, 131074, 786450, 0, 65536, 786451, 0, 65538, 786453, 0, 131072, 786454, 0, 131073, 786455, 0, 131073, 786456, 0, 131074, 786467, 0, 131072, 786468, 0, 131073, 786469, 0, 131073, 786470, 0, 131073, 786471, 0, 131073, 786472, 0, 131073, 786473, 0, 131074, 786475, 0, 65536, 786476, 0, 65538, 786478, 0, 65536, 786479, 0, 65538, 786483, 0, 65536, 786484, 0, 65538, 786486, 0, 65536, 786487, 0, 65537, 786488, 0, 65537, 786489, 0, 65537, 786490, 0, 65537, 786491, 0, 65537, 786492, 0, 65537, 786493, 0, 65537, 786494, 0, 65538, 786500, 0, 65536, 786501, 0, 65537, 786502, 0, 65538, 851970, 0, 65536, 851971, 0, 65537, 851972, 0, 65537, 851973, 0, 65537, 851974, 0, 65537, 851975, 0, 65537, 851976, 0, 65537, 851977, 0, 65538, 851979, 0, 65536, 851980, 0, 65538, 851986, 0, 65536, 851987, 0, 65538, 852011, 0, 65536, 852012, 0, 65538, 852014, 0, 65536, 852015, 0, 4, 852016, 0, 1, 852017, 0, 1, 852018, 0, 1, 852019, 0, 3, 852020, 0, 65538, 852022, 0, 65536, 852023, 0, 65537, 852024, 0, 65537, 852025, 0, 65537, 852026, 0, 65537, 852027, 0, 65537, 852028, 0, 65537, 852029, 0, 65537, 852030, 0, 65538, 852036, 0, 131072, 852037, 0, 131073, 852038, 0, 131074, 917506, 0, 65536, 917507, 0, 65537, 917508, 0, 65537, 917509, 0, 65537, 917510, 0, 65537, 917511, 0, 65537, 917512, 0, 65537, 917513, 0, 65538, 917515, 0, 65536, 917516, 0, 4, 917517, 0, 1, 917518, 0, 1, 917519, 0, 1, 917520, 0, 1, 917521, 0, 1, 917522, 0, 3, 917523, 0, 4, 917524, 0, 1, 917525, 0, 1, 917526, 0, 1, 917527, 0, 1, 917528, 0, 1, 917529, 0, 1, 917530, 0, 1, 917531, 0, 1, 917532, 0, 1, 917533, 0, 1, 917534, 0, 1, 917535, 0, 1, 917536, 0, 1, 917537, 0, 1, 917538, 0, 1, 917539, 0, 1, 917540, 0, 1, 917541, 0, 1, 917542, 0, 1, 917543, 0, 1, 917544, 0, 1, 917545, 0, 1, 917546, 0, 1, 917547, 0, 3, 917548, 0, 65538, 917550, 0, 65536, 917551, 0, 65537, 917552, 0, 65537, 917553, 0, 65537, 917554, 0, 65537, 917555, 0, 65537, 917556, 0, 65538, 917558, 0, 131072, 917559, 0, 131073, 917560, 0, 131073, 917561, 0, 131073, 917562, 0, 131073, 917563, 0, 65539, 917564, 0, 65540, 917565, 0, 131073, 917566, 0, 131074, 983042, 0, 131072, 983043, 0, 131073, 983044, 0, 131073, 983045, 0, 131073, 983046, 0, 131073, 983047, 0, 131073, 983048, 0, 131073, 983049, 0, 131074, 983051, 0, 131072, 983052, 0, 131073, 983053, 0, 131073, 983054, 0, 131073, 983055, 0, 131073, 983056, 0, 65539, 983057, 0, 65537, 983058, 0, 65537, 983059, 0, 65540, 983060, 0, 131073, 983061, 0, 131073, 983062, 0, 131073, 983063, 0, 131073, 983064, 0, 131073, 983065, 0, 65539, 983066, 0, 65540, 983067, 0, 131073, 983068, 0, 65539, 983069, 0, 65537, 983070, 0, 65537, 983071, 0, 65537, 983072, 0, 65537, 983073, 0, 65537, 983074, 0, 65537, 983075, 0, 65537, 983076, 0, 65537, 983077, 0, 65537, 983078, 0, 65537, 983079, 0, 65537, 983080, 0, 65537, 983081, 0, 65537, 983082, 0, 65537, 983083, 0, 65537, 983084, 0, 65538, 983086, 0, 65536, 983087, 0, 65537, 983088, 0, 65537, 983089, 0, 65537, 983090, 0, 65537, 983091, 0, 65537, 983092, 0, 65538, 983099, 0, 65536, 983100, 0, 65538, 1048592, 0, 65536, 1048593, 0, 65537, 1048594, 0, 65537, 1048595, 0, 65538, 1048601, 0, 65536, 1048602, 0, 65538, 1048604, 0, 65536, 1048605, 0, 65537, 1048606, 0, 65537, 1048607, 0, 65537, 1048608, 0, 65537, 1048609, 0, 65537, 1048610, 0, 65537, 1048611, 0, 65537, 1048612, 0, 65537, 1048613, 0, 65537, 1048614, 0, 65537, 1048615, 0, 65537, 1048616, 0, 65537, 1048617, 0, 65537, 1048618, 0, 65537, 1048619, 0, 65537, 1048620, 0, 65538, 1048622, 0, 65536, 1048623, 0, 65537, 1048624, 0, 65537, 1048625, 0, 65537, 1048626, 0, 65537, 1048627, 0, 65537, 1048628, 0, 65538, 1048635, 0, 65536, 1048636, 0, 65538, 1114114, 0, 0, 1114115, 0, 1, 1114116, 0, 1, 1114117, 0, 1, 1114118, 0, 1, 1114119, 0, 1, 1114120, 0, 1, 1114121, 0, 1, 1114122, 0, 1, 1114123, 0, 1, 1114124, 0, 1, 1114125, 0, 1, 1114126, 0, 2, 1114128, 0, 65536, 1114129, 0, 65537, 1114130, 0, 65537, 1114131, 0, 65538, 1114133, 0, 0, 1114134, 0, 1, 1114135, 0, 1, 1114136, 0, 1, 1114137, 0, 3, 1114138, 0, 65538, 1114140, 0, 131072, 1114141, 0, 131073, 1114142, 0, 131073, 1114143, 0, 131073, 1114144, 0, 131073, 1114145, 0, 131073, 1114146, 0, 131073, 1114147, 0, 131073, 1114148, 0, 131073, 1114149, 0, 131073, 1114150, 0, 131073, 1114151, 0, 131073, 1114152, 0, 131073, 1114153, 0, 131073, 1114154, 0, 131073, 1114155, 0, 131073, 1114156, 0, 131074, 1114158, 0, 65536, 1114159, 0, 65537, 1114160, 0, 65537, 1114161, 0, 65537, 1114162, 0, 65537, 1114163, 0, 65537, 1114164, 0, 65538, 1114167, 0, 0, 1114168, 0, 1, 1114169, 0, 1, 1114170, 0, 1, 1114171, 0, 3, 1114172, 0, 4, 1114173, 0, 1, 1114174, 0, 1, 1114175, 0, 1, 1114176, 0, 2, 1179650, 0, 65536, 1179651, 0, 65537, 1179652, 0, 65537, 1179653, 0, 65537, 1179654, 0, 65537, 1179655, 0, 65537, 1179656, 0, 65537, 1179657, 0, 65537, 1179658, 0, 65537, 1179659, 0, 65537, 1179660, 0, 65537, 1179661, 0, 65537, 1179662, 0, 4, 1179663, 0, 1, 1179664, 0, 3, 1179665, 0, 65537, 1179666, 0, 65537, 1179667, 0, 65538, 1179669, 0, 65536, 1179670, 0, 65537, 1179671, 0, 65537, 1179672, 0, 65537, 1179673, 0, 65537, 1179674, 0, 65538, 1179694, 0, 65536, 1179695, 0, 65537, 1179696, 0, 65537, 1179697, 0, 65537, 1179698, 0, 65537, 1179699, 0, 65537, 1179700, 0, 65538, 1179703, 0, 65536, 1179704, 0, 65537, 1179705, 0, 65537, 1179706, 0, 65537, 1179707, 0, 65537, 1179708, 0, 65537, 1179709, 0, 65537, 1179710, 0, 65537, 1179711, 0, 65537, 1179712, 0, 65538, 1245186, 0, 131072, 1245187, 0, 131073, 1245188, 0, 131073, 1245189, 0, 131073, 1245190, 0, 131073, 1245191, 0, 131073, 1245192, 0, 131073, 1245193, 0, 131073, 1245194, 0, 131073, 1245195, 0, 131073, 1245196, 0, 131073, 1245197, 0, 131073, 1245198, 0, 131073, 1245199, 0, 131073, 1245200, 0, 65539, 1245201, 0, 65537, 1245202, 0, 65537, 1245203, 0, 65538, 1245205, 0, 65536, 1245206, 0, 65537, 1245207, 0, 65537, 1245208, 0, 65537, 1245209, 0, 65537, 1245210, 0, 65538, 1245230, 0, 131072, 1245231, 0, 131073, 1245232, 0, 131073, 1245233, 0, 131073, 1245234, 0, 131073, 1245235, 0, 131073, 1245236, 0, 131074, 1245239, 0, 131072, 1245240, 0, 131073, 1245241, 0, 131073, 1245242, 0, 131073, 1245243, 0, 131073, 1245244, 0, 131073, 1245245, 0, 131073, 1245246, 0, 131073, 1245247, 0, 131073, 1245248, 0, 131074, 1310736, 0, 65536, 1310737, 0, 65537, 1310738, 0, 65537, 1310739, 0, 65538, 1310741, 0, 65536, 1310742, 0, 65537, 1310743, 0, 65537, 1310744, 0, 65537, 1310745, 0, 65537, 1310746, 0, 65538, 1376272, 0, 131072, 1376273, 0, 131073, 1376274, 0, 131073, 1376275, 0, 131074, 1376277, 0, 131072, 1376278, 0, 131073, 1376279, 0, 131073, 1376280, 0, 131073, 1376281, 0, 131073, 1376282, 0, 131074 )

[node name="floorTiles2" type="TileMap" parent="."]
tile_set = ExtResource( 1 )
cell_size = Vector2( 32, 32 )
collision_layer = 3
collision_mask = 3
format = 1
tile_data = PoolIntArray( 393241, 0, 0, 393242, 0, 1, 393243, 0, 1, 393244, 0, 1, 393245, 0, 1, 393246, 0, 1, 393247, 0, 1, 393248, 0, 1, 393249, 0, 2, 458777, 0, 65536, 458778, 0, 65537, 458779, 0, 65537, 458780, 0, 65537, 458781, 0, 65537, 458782, 0, 65537, 458783, 0, 65537, 458784, 0, 65537, 458785, 0, 65538, 524313, 0, 65536, 524314, 0, 65537, 524315, 0, 65537, 524316, 0, 65537, 524317, 0, 65537, 524318, 0, 65537, 524319, 0, 65537, 524320, 0, 65537, 524321, 0, 65538, 589849, 0, 65536, 589850, 0, 65537, 589851, 0, 65537, 589852, 0, 65537, 589853, 0, 65537, 589854, 0, 65537, 589855, 0, 65537, 589856, 0, 65537, 589857, 0, 65538, 655385, 0, 65536, 655386, 0, 65537, 655387, 0, 65537, 655388, 0, 65537, 655389, 0, 65537, 655390, 0, 65537, 655391, 0, 65537, 655392, 0, 65537, 655393, 0, 65538, 720921, 0, 65536, 720922, 0, 65537, 720923, 0, 65537, 720924, 0, 65537, 720925, 0, 65537, 720926, 0, 65537, 720927, 0, 65537, 720928, 0, 65537, 720929, 0, 65538, 786457, 0, 65536, 786458, 0, 65537, 786459, 0, 65537, 786460, 0, 65537, 786461, 0, 65537, 786462, 0, 65537, 786463, 0, 65537, 786464, 0, 65537, 786465, 0, 65538, 851993, 0, 131072, 851994, 0, 131073, 851995, 0, 131073, 851996, 0, 131073, 851997, 0, 131073, 851998, 0, 131073, 851999, 0, 131073, 852000, 0, 131073, 852001, 0, 131074 )

[node name="stationTiles" type="TileMap" parent="."]
tile_set = SubResource( 2 )
cell_size = Vector2( 32, 32 )
format = 1
tile_data = PoolIntArray( 65568, 10, 0, 65583, 0, 0, 65592, 0, 0, 131104, 10, 0, 327683, 0, 0, 393272, 0, 0, 393277, 0, 0, 458821, 0, 0, 589839, 0, 0, 589846, 0, 0, 589863, 0, 0, 589874, 0, 0, 655384, 10, 0, 655385, 10, 0, 786501, 0, 0, 852024, 0, 0, 852029, 0, 0, 1179704, 0, 0 )

[node name="utube" type="Sprite" parent="."]
position = Vector2( 1009.16, 319.852 )
scale = Vector2( 0.2, 0.2 )
texture = ExtResource( 16 )

[node name="core" type="Sprite" parent="."]
position = Vector2( 923.734, 320.789 )
scale = Vector2( 0.110659, 0.115078 )
texture = ExtResource( 17 )

[node name="turbine" type="Sprite" parent="."]
position = Vector2( 1209.4, 322.74 )
scale = Vector2( 0.1, 0.15 )
texture = ExtResource( 15 )

[node name="ore" type="Node2D" parent="."]

[node name="SpawnPoints" type="Node2D" parent="."]
visible = false

[node name="0" type="Position2D" parent="SpawnPoints"]
position = Vector2( 930, 545 )

[node name="1" type="Position2D" parent="SpawnPoints"]
position = Vector2( 960, 545 )

[node name="2" type="Position2D" parent="SpawnPoints"]
position = Vector2( 990, 545 )

[node name="3" type="Position2D" parent="SpawnPoints"]
position = Vector2( 1020, 545 )

[node name="4" type="Position2D" parent="SpawnPoints"]
position = Vector2( 1056.52, 544.363 )

[node name="5" type="Position2D" parent="SpawnPoints"]
position = Vector2( 1088.72, 544.877 )

[node name="6" type="Position2D" parent="SpawnPoints"]
position = Vector2( 1120.54, 545.486 )

[node name="7" type="Position2D" parent="SpawnPoints"]
position = Vector2( 1152.26, 544.108 )

[node name="8" type="Position2D" parent="SpawnPoints"]
position = Vector2( 1184.35, 544.894 )

[node name="9" type="Position2D" parent="SpawnPoints"]
position = Vector2( 1217.24, 545.285 )

[node name="10" type="Position2D" parent="SpawnPoints"]
position = Vector2( 1250.13, 545.383 )

[node name="11" type="Position2D" parent="SpawnPoints"]
position = Vector2( 1281.1, 542.995 )

[node name="Players" type="Node2D" parent="."]

[node name="Camera2D" type="Camera2D" parent="."]
offset = Vector2( 512, 300 )

[node name="labels" type="Control" parent="."]
margin_right = 40.0
margin_bottom = 40.0
__meta__ = {
"_edit_use_anchors_": false
}

[node name="engines" type="RichTextLabel" parent="labels"]
margin_left = 281.881
margin_top = 307.799
margin_right = 352.881
margin_bottom = 347.799
rect_pivot_offset = Vector2( -215.549, 167.993 )
custom_colors/default_color = Color( 0, 1, 0, 1 )
custom_colors/font_color_shadow = Color( 0, 0, 0, 1 )
text = "Engines"
__meta__ = {
"_edit_use_anchors_": false
}

[node name="reactor core" type="RichTextLabel" parent="labels"]
margin_left = 849.204
margin_top = 251.404
margin_right = 948.204
margin_bottom = 291.404
rect_pivot_offset = Vector2( -215.549, 167.993 )
custom_colors/default_color = Color( 0, 1, 0.0862745, 1 )
custom_colors/font_color_shadow = Color( 0, 0, 0, 1 )
text = "Reactor Core
"
__meta__ = {
"_edit_use_anchors_": false
}

[node name="reactor core2" type="RichTextLabel" parent="labels"]
margin_left = 676.68
margin_top = 326.579
margin_right = 775.68
margin_bottom = 366.579
rect_pivot_offset = Vector2( -215.549, 167.993 )
custom_colors/default_color = Color( 0, 1, 0.0862745, 1 )
custom_colors/font_color_shadow = Color( 0, 0, 0, 1 )
text = "Core Interface"
__meta__ = {
"_edit_use_anchors_": false
}

[node name="spent fuel" type="RichTextLabel" parent="labels"]
margin_left = 736.276
margin_top = 615.334
margin_right = 835.276
margin_bottom = 655.334
rect_pivot_offset = Vector2( -215.549, 167.993 )
custom_colors/default_color = Color( 0, 1, 0.0862745, 1 )
custom_colors/font_color_shadow = Color( 0, 0, 0, 1 )
text = "Spent Fuel Pool"
__meta__ = {
"_edit_use_anchors_": false
}

[node name="fuel storage" type="RichTextLabel" parent="labels"]
margin_left = 740.968
margin_top = 10.7042
margin_right = 839.968
margin_bottom = 50.7042
rect_pivot_offset = Vector2( -215.549, 167.993 )
custom_colors/default_color = Color( 0, 1, 0.0862745, 1 )
custom_colors/font_color_shadow = Color( 0, 0, 0, 1 )
text = "Fuel Storage"
__meta__ = {
"_edit_use_anchors_": false
}

[node name="reactor controls" type="RichTextLabel" parent="labels"]
margin_left = 446.097
margin_top = 324.26
margin_right = 508.097
margin_bottom = 364.26
rect_pivot_offset = Vector2( -215.549, 167.993 )
custom_colors/default_color = Color( 0, 1, 0.0862745, 1 )
custom_colors/font_color_shadow = Color( 0, 0, 0, 1 )
text = "Reactor Controls"
__meta__ = {
"_edit_use_anchors_": false
}

[node name="reactor cooling" type="RichTextLabel" parent="labels"]
margin_left = 1254.67
margin_top = 327.753
margin_right = 1369.67
margin_bottom = 367.753
rect_pivot_offset = Vector2( -215.549, 167.993 )
custom_colors/default_color = Color( 0, 1, 0.0862745, 1 )
custom_colors/font_color_shadow = Color( 0, 0, 0, 1 )
text = "Reactor Turbine"
__meta__ = {
"_edit_use_anchors_": false
}

[node name="bridge" type="RichTextLabel" parent="labels"]
margin_left = 2201.68
margin_top = 268.48
margin_right = 2272.68
margin_bottom = 308.48
rect_pivot_offset = Vector2( -215.549, 167.993 )
custom_colors/default_color = Color( 0.282353, 1, 0, 1 )
custom_colors/font_color_shadow = Color( 0, 0, 0, 1 )
text = "Bridge"
__meta__ = {
"_edit_use_anchors_": false
}

[node name="radar" type="RichTextLabel" parent="labels"]
margin_left = 2202.44
margin_top = 359.455
margin_right = 2273.44
margin_bottom = 399.455
rect_pivot_offset = Vector2( -215.549, 167.993 )
custom_colors/default_color = Color( 0.282353, 1, 0, 1 )
custom_colors/font_color_shadow = Color( 0, 0, 0, 1 )
text = "Radar"
__meta__ = {
"_edit_use_anchors_": false
}

[node name="assembler" type="RichTextLabel" parent="labels"]
margin_left = 1764.39
margin_top = 240.013
margin_right = 1872.39
margin_bottom = 280.013
rect_pivot_offset = Vector2( -215.549, 167.993 )
custom_colors/default_color = Color( 0.396078, 1, 0, 1 )
custom_colors/font_color_shadow = Color( 0, 0, 0, 1 )
text = "Fuel Assembler"
__meta__ = {
"_edit_use_anchors_": false
}

[node name="o2" type="RichTextLabel" parent="labels"]
margin_left = 1841.53
margin_top = 579.66
margin_right = 1949.53
margin_bottom = 619.66
rect_pivot_offset = Vector2( -215.549, 167.993 )
custom_colors/default_color = Color( 0.117647, 1, 0, 1 )
custom_colors/selection_color = Color( 0, 0, 0, 1 )
custom_colors/font_color_shadow = Color( 0, 0, 0, 1 )
text = "Oxygen Generator"
__meta__ = {
"_edit_use_anchors_": false
}

[node name="co2" type="RichTextLabel" parent="labels"]
margin_left = 1844.16
margin_top = 40.5343
margin_right = 1952.16
margin_bottom = 80.5343
rect_pivot_offset = Vector2( -215.549, 167.993 )
custom_colors/default_color = Color( 0.117647, 1, 0, 1 )
custom_colors/selection_color = Color( 0, 0, 0, 1 )
custom_colors/font_color_shadow = Color( 0, 0, 0, 1 )
text = "Scrubber"
__meta__ = {
"_edit_use_anchors_": false
}

[node name="missiles" type="RichTextLabel" parent="labels"]
margin_left = 1493.03
margin_top = 72.6928
margin_right = 1601.03
margin_bottom = 112.693
rect_pivot_offset = Vector2( -215.549, 167.993 )
custom_colors/default_color = Color( 0.117647, 1, 0, 1 )
custom_colors/selection_color = Color( 0, 0, 0, 1 )
custom_colors/font_color_shadow = Color( 0, 0, 0, 1 )
text = "Missiles"
__meta__ = {
"_edit_use_anchors_": false
}

[node name="missile assembler" type="RichTextLabel" parent="labels"]
margin_left = 1926.3
margin_top = 226.097
margin_right = 2034.3
margin_bottom = 266.097
rect_pivot_offset = Vector2( -215.549, 167.993 )
custom_colors/default_color = Color( 0.117647, 1, 0, 1 )
custom_colors/selection_color = Color( 0, 0, 0, 1 )
custom_colors/font_color_shadow = Color( 0, 0, 0, 1 )
text = "Missile Assembler"
__meta__ = {
"_edit_use_anchors_": false
}

[node name="water" type="RichTextLabel" parent="labels"]
margin_left = 1759.88
margin_top = 393.926
margin_right = 1867.88
margin_bottom = 433.926
rect_pivot_offset = Vector2( -215.549, 167.993 )
custom_colors/default_color = Color( 0.117647, 1, 0, 1 )
custom_colors/selection_color = Color( 0, 0, 0, 1 )
custom_colors/font_color_shadow = Color( 0, 0, 0, 1 )
text = "Water Tank"
__meta__ = {
"_edit_use_anchors_": false
}

[node name="reprocessor" type="RichTextLabel" parent="labels"]
margin_left = 1888.39
margin_top = 391.485
margin_right = 2004.39
margin_bottom = 431.485
rect_pivot_offset = Vector2( -215.549, 167.993 )
custom_colors/default_color = Color( 0.117647, 1, 0, 1 )
custom_colors/selection_color = Color( 0, 0, 0, 1 )
custom_colors/font_color_shadow = Color( 0, 0, 0, 1 )
text = "Fuel Reprocessor"
__meta__ = {
"_edit_use_anchors_": false
}

[node name="airlock" type="RichTextLabel" parent="labels"]
margin_left = 1015.1
margin_top = 102.614
margin_right = 1123.1
margin_bottom = 142.614
rect_pivot_offset = Vector2( -215.549, 167.993 )
custom_colors/default_color = Color( 0.14902, 1, 0, 1 )
custom_colors/font_color_shadow = Color( 0, 0, 0, 1 )
text = "Airlock
"
__meta__ = {
"_edit_use_anchors_": false
}

[node name="radiator" type="RichTextLabel" parent="labels"]
margin_left = 113.944
margin_top = 612.513
margin_right = 221.944
margin_bottom = 652.513
rect_pivot_offset = Vector2( -215.549, 167.993 )
custom_colors/default_color = Color( 0, 1, 0, 1 )
custom_colors/font_color_shadow = Color( 0, 0, 0, 1 )
text = "Radiators"
__meta__ = {
"_edit_use_anchors_": false
}

[node name="laser" type="RichTextLabel" parent="labels"]
margin_left = 575.515
margin_top = 10.3694
margin_right = 683.515
margin_bottom = 50.3694
rect_pivot_offset = Vector2( -215.549, 167.993 )
custom_colors/default_color = Color( 0.141176, 1, 0, 1 )
custom_colors/font_color_shadow = Color( 0, 0, 0, 1 )
text = "Lasers
"
__meta__ = {
"_edit_use_anchors_": false
}

[node name="electrical" type="RichTextLabel" parent="labels"]
margin_left = 1595.85
margin_top = 326.714
margin_right = 1703.85
margin_bottom = 366.714
rect_pivot_offset = Vector2( -215.549, 167.993 )
custom_colors/default_color = Color( 0.0941176, 1, 0, 1 )
custom_colors/font_color_shadow = Color( 0, 0, 0, 1 )
text = "Electrical"
__meta__ = {
"_edit_use_anchors_": false
}

[node name="rooms" type="Node2D" parent="."]
visible = false

[node name="core" type="Area2D" parent="rooms"]
position = Vector2( 847, 338 )

[node name="CollisionShape2D" type="CollisionShape2D" parent="rooms/core"]
position = Vector2( -126.992, -32.5417 )
shape = SubResource( 3 )

[node name="ctrl_room" type="Area2D" parent="rooms"]

[node name="CollisionShape2D" type="CollisionShape2D" parent="rooms/ctrl_room"]
position = Vector2( 496.345, 303.189 )
shape = SubResource( 3 )

[node name="cooling" type="Area2D" parent="rooms"]

[node name="CollisionShape2D" type="CollisionShape2D" parent="rooms/cooling"]
position = Vector2( 1263.12, 304.369 )
shape = SubResource( 3 )

[node name="missiles" type="Area2D" parent="rooms"]

[node name="CollisionShape2D" type="CollisionShape2D" parent="rooms/missiles"]
position = Vector2( 1520.07, 48.1834 )
shape = SubResource( 3 )

[node name="engine_left" type="Area2D" parent="rooms"]

[node name="CollisionShape2D" type="CollisionShape2D" parent="rooms/engine_left"]
position = Vector2( 111.279, 176.606 )
shape = SubResource( 3 )

[node name="fuel_assembler" type="Area2D" parent="rooms"]

[node name="CollisionShape2D" type="CollisionShape2D" parent="rooms/fuel_assembler"]
position = Vector2( 1809.29, 207.634 )
shape = SubResource( 3 )

[node name="fuel_reproc" type="Area2D" parent="rooms"]

[node name="CollisionShape2D" type="CollisionShape2D" parent="rooms/fuel_reproc"]
position = Vector2( 1967.29, 431.634 )
shape = SubResource( 3 )

[node name="nuke_maker" type="Area2D" parent="rooms"]

[node name="CollisionShape2D" type="CollisionShape2D" parent="rooms/nuke_maker"]
position = Vector2( 1967.29, 209.387 )
shape = SubResource( 3 )

[node name="airlock_top" type="Area2D" parent="rooms"]

[node name="CollisionShape2D" type="CollisionShape2D" parent="rooms/airlock_top"]
position = Vector2( 1040, 84 )
shape = SubResource( 3 )

[node name="airlock_top_out" type="Area2D" parent="rooms"]

[node name="CollisionShape2D" type="CollisionShape2D" parent="rooms/airlock_top_out"]
position = Vector2( 1042.5, 50 )
shape = SubResource( 3 )

[node name="music" type="AudioStreamPlayer" parent="."]
stream = ExtResource( 24 )
volume_db = 1.0
autoplay = true
[connection signal="pressed" from="UI/Winner/ExitGame" to="UI/Score" method="_on_exit_game_pressed"]
[connection signal="pressed" from="UI/Core_UI/close" to="UI/Core_UI" method="_on_close_pressed"]
[connection signal="pressed" from="UI/Core_UI/insert" to="UI/Core_UI" method="_on_insert_pressed"]
[connection signal="pressed" from="UI/Core_UI/remove" to="UI/Core_UI" method="_on_remove_pressed"]
[connection signal="pressed" from="UI/Turbine_UI/close" to="UI/Turbine_UI" method="_on_close_pressed"]
[connection signal="pressed" from="UI/Fuel_UI/close" to="UI/Fuel_UI" method="_on_close_pressed"]
[connection signal="pressed" from="UI/Fuel_UI/insert" to="UI/Fuel_UI" method="_on_insert_pressed"]
[connection signal="pressed" from="UI/Fuel_UI/remove" to="UI/Fuel_UI" method="_on_remove_pressed"]
[connection signal="pressed" from="UI/ctrl_UI/close" to="UI/ctrl_UI" method="_on_close_pressed"]
[connection signal="value_changed" from="UI/ctrl_UI/ctrl" to="UI/ctrl_UI" method="_on_ctrl_value_changed"]
[connection signal="value_changed" from="UI/ctrl_UI/pump" to="UI/ctrl_UI" method="_on_pump_value_changed"]
[connection signal="pressed" from="UI/ctrl_UI/SCRAM" to="UI/ctrl_UI" method="_on_SCRAM"]
[connection signal="pressed" from="UI/NukeMaker_UI/close" to="UI/NukeMaker_UI" method="_on_close_pressed"]
[connection signal="pressed" from="UI/NukeMaker_UI/insert" to="UI/NukeMaker_UI" method="_on_insert_pressed"]
[connection signal="pressed" from="UI/NukeMaker_UI/remove" to="UI/NukeMaker_UI" method="_on_remove_pressed"]
[connection signal="pressed" from="UI/Reproc_UI/close" to="UI/Reproc_UI" method="_on_close_pressed"]
[connection signal="pressed" from="UI/Reproc_UI/insert" to="UI/Reproc_UI" method="_on_insert_pressed"]
[connection signal="pressed" from="UI/Reproc_UI/take_Fuel" to="UI/Reproc_UI" method="_on_take_fuel"]
[connection signal="pressed" from="UI/Reproc_UI/take_Pu" to="UI/Reproc_UI" method="_on_take_Pu_pressed"]
[connection signal="pressed" from="UI/Reproc_UI/Pu_Toggle" to="UI/Reproc_UI" method="_on_Pu_Toggle_pressed"]
[connection signal="gui_input" from="UI/Nuke_UI" to="UI/Nuke_UI" method="_on_Nuke_UI_gui_input"]
[connection signal="pressed" from="UI/Nuke_UI/close" to="UI/Nuke_UI" method="_on_close_pressed"]
[connection signal="pressed" from="UI/Nuke_UI/insert" to="UI/Nuke_UI" method="_on_insert_pressed"]
[connection signal="pressed" from="UI/Nuke_UI/remove" to="UI/Nuke_UI" method="_on_remove_pressed"]
